Added Component: Designator=JP3(JP5)
Added Component: Designator=JP4(JP5)
Added Pin To Net: NetName=B3 Pin=JP3-1
Added Pin To Net: NetName=C6 Pin=JP3-3
Added Pin To Net: NetName=B5 Pin=JP3-4
Added Pin To Net: NetName=B4 Pin=JP3-5
Added Pin To Net: NetName=VCC Pin=JP4-1
Added Pin To Net: NetName=GND Pin=JP4-2
Added Pin To Net: NetName=GND Pin=JP4-3
Added Pin To Net: NetName=GND Pin=JP4-4
Added Pin To Net: NetName=GND Pin=JP4-5
Added Member To Class: ClassName=burn_in_box Member=Component JP3 JP5
Added Member To Class: ClassName=burn_in_box Member=Component JP4 JP5
Added Room: Name=burn_in_box
