Removed Pin From Net: NetName=VCC Pin=VR2-1
Removed Pin From Net: NetName=C5 Pin=VR2-2
Removed Pin From Net: NetName=GND Pin=VR2-3
Removed Pin From Net: NetName=VCC Pin=VR3-1
Removed Pin From Net: NetName=C4 Pin=VR3-2
Removed Pin From Net: NetName=GND Pin=VR3-3
Removed Member From Class: ClassName=burn_in_box Member=VR2
Removed Member From Class: ClassName=burn_in_box Member=VR3
