Removed Pin From Net: NetName=B3 Pin=JP4-1
Removed Pin From Net: NetName=C6 Pin=JP4-3
Removed Pin From Net: NetName=B5 Pin=JP4-4
Removed Pin From Net: NetName=B4 Pin=JP4-5
Removed Pin From Net: NetName=VCC Pin=JP5-1
Removed Pin From Net: NetName=GND Pin=JP5-2
Removed Pin From Net: NetName=GND Pin=JP5-3
Removed Pin From Net: NetName=GND Pin=JP5-4
Removed Pin From Net: NetName=GND Pin=JP5-5
Removed Member From Class: ClassName=burn_in_box Member=JP4
Removed Member From Class: ClassName=burn_in_box Member=JP5
Added Component: Designator=J15(JP4x2)
Added Member To Class: ClassName=burn_in_box Member=Component J15 Connector 4x2
Added Room: Name=burn_in_box
